<?xml version="1.0" encoding="UTF-8"?>
<svg width="17px" height="25px" viewBox="0 0 17 25" version="1.1" xmlns="http://www.w3.org/2000/svg" xmlns:xlink="http://www.w3.org/1999/xlink">
    <!-- Generator: sketchtool 61 (101010) - https://sketch.com -->
    <title>3929BA07-173F-4EB3-B4B0-4023E58D1552</title>
    <desc>Created with sketchtool.</desc>
    <g id="Education-Providers-Page" stroke="none" stroke-width="1" fill="none" fill-rule="evenodd">
        <g id="Provider-Profiles-Default-Desktop" transform="translate(-669.000000, -527.000000)" fill="#8DC63F">
            <path d="M681.75,535.333333 C681.75,537.628333 679.8409,539.5 677.5,539.5 C675.1591,539.5 673.25,537.628333 673.25,535.333333 C673.25,533.038333 675.1591,531.166667 677.5,531.166667 C679.8409,531.166667 681.75,533.038333 681.75,535.333333 M686,535.333333 C686,530.726667 682.1988,527 677.5,527 C672.8012,527 669,530.726667 669,535.333333 C669,536.326667 669.1156,537.351667 669.5474,538.246667 L675.6079,550.845 C675.9394,551.56 676.7027,552 677.5,552 C678.2973,552 679.0606,551.56 679.4091,550.845 L685.4526,538.246667 C685.8844,537.351667 686,536.326667 686,535.333333" id="Fill-1-2"></path>
        </g>
    </g>
</svg>